
005-1,19,41,0	warp	ToSandstorm3	0,2,002-1,106,78
005-1,89,23,0	warp	ToSnakeCave1	0,0,005-3,52,34
005-1,71,75,0	warp	ToSnakeCave2	0,0,005-3,33,82
005-1,167,108,0	warp	ToDesertMountains1	0,0,006-1,20,33
005-1,168,107,0	warp	ToDesertMountains2	0,0,006-1,21,32
005-1,169,106,0	warp	ToDesertMountains3	0,0,006-1,22,31
005-1,171,104,0	warp	ToDesertMountains4	0,0,006-1,24,29
005-1,170,105,0	warp	ToDesertMountains5	0,0,006-1,23,30
005-1,172,103,0	warp	ToDesertMountains6	0,0,006-1,25,28
005-1,174,101,0	warp	ToDesertMountains7	0,0,006-1,27,26
005-1,173,102,0	warp	ToDesertMountains8	0,0,006-1,26,27
005-1,175,100,0	warp	ToDesertMountains9	0,0,006-1,28,25
005-1,176,99,0	warp	ToDesertMountains10	0,0,006-1,29,24
005-1,177,98,0	warp	ToDesertMountains11	0,0,006-1,30,23
005-1,178,97,0	warp	ToDesertMountains12	0,0,006-1,31,22
005-1,179,96,0	warp	ToDesertMountains13	0,0,006-1,32,21
