
011-3,0,0,0,0	monster	Bat	1017,10,0,0,Mob4::OnBat

011-3,0,0,0,0	monster	SilkWorm	1035,3,60000,30000,Mob4::OnSilkWorm

011-3,0,0,0	script	Mob4	NPCMINUS1,{
OnBat:
	set @mobId, 1017;
	callfunc "MobPoints";
	end;

OnSilkWorm:
	set @mobId, 1035;
	callfunc "MobPoints";
	end;
}
