013-1,111,71,0	script	[Grantelbart]	NPC206,{
if (weinachten2010 >= 10) goto gruml;
if (pixie == 1) goto gruml;
if (weihnachten2010 < 5) goto gruml;
if (weihnachten2010 == 5) goto L_x1;
if (weihnachten2010 == 6) goto L_x2;
if (weihnachten2010 == 7 || weihnachten2010 == 8) goto L_x3; 
if (weihnachten2010 == 9) goto L_x4; 

L_x1:
	mes "[Grantelbart]";
	mes "Verschwinde!";
	menu
		"Nicht ohne Rudolph!",protest1,
		"Okay, bin ja schon weg",-;
	close;
protest1:
	mes "[Grantelbart]";
	mes "\"Nicht, bevor wir nicht bekommen was wir wollen!\"";
	next;
L_x2:
	mes "[" + strcharinfo(0) + "]";
	mes "\"was wollt ihr?\"";
	next;
	set weihnachten2010, 7;
L_x3:
	mes "[Grantelbart]";
	mes "\"Wir Wollen Süßigkeiten!\"";
	if ((countitem(509) >= 20) && (countitem(510) >=20)) goto L_x4; 
	close;
L_x4:
	mes "[" + strcharinfo(0) + "]";
	mes "\"Hier sind die Süßigkeiten!\"";
	delitem 509,20;
	delitem 510,20;
	set pixie, 1;
	set weihnachten2010, 9;
	next;
	mes "\"Okay, da habt ihr Rudolph\"";
	close;

gruml: 
	mes "[Grantelbart]";
	mes "\"gruml\"";
	close;

}


013-1,113,66,0	script	[Guilfi]	NPC207,{
	mes "[Guilfi]";
	mes "\"gruml\"";
close;
}
013-1,108,67,0	script	[Gugor]	NPC208,{
	mes "[Gugor]";
	mes "\"gruml\"";
close;
}
