botcheck 1
001-1 2
001-2 3
001-3 4
001-4 5
002-1 6
002-3 7
002-4 8
003-1 9
004-1 10
004-2 11
005-1 12
005-3 13
006-1 14
006-3 15
007-1 16
008-1 17
009-1 18
009-2 19
009-3 20
010-1 21
010-2 22
011-1 23
011-3 24
011-4 25
011-5 26
012-1 27
012-3 28
013-1 29
013-2 30
013-3 31
014-1 32
014-3 33
015-1 34
015-3 35
016-1 36
017-1 37
018-1 38
018-2 39
018-3 40
019-1 41
019-5 42
020-1 43
020-2 44
020-3 45
020-4 46
021-1 47
021-2 48
022-1 49
024-1 50
024-2 51
024-3 52
024-4 53
025-1 54
026-1 55
027-1 56
027-2 57
0100-1 58
0100-2 59
0102-1 60
0102-2 61
0103-1 62
0103-2 63
0103-3 64
0104-1 65
